{
  "project_info": {
    "project_number": "819240501242",
    "firebase_url": "https://fichajes-deportivos.firebaseio.com",
    "project_id": "fichajes-deportivos",
    "storage_bucket": "fichajes-deportivos.appspot.com"
  },
  "client": [
    {
      "client_info": {
        "mobilesdk_app_id": "1:819240501242:android:e9f0a35329415067856e43",
        "android_client_info": {
          "package_name": "com.chema.fichajesdeportivos"
        }
      },
      "oauth_client": [
        {
          "client_id": "819240501242-2p3p0qe4865rqcd4movajdbkuokf1nlq.apps.googleusercontent.com",
          "client_type": 3
        }
      ],
      "api_key": [
        {
          "current_key": "AIzaSyCn4undI8NlxIQikc1vWjARi39yztZbDY4"
        }
      ],
      "services": {
        "appinvite_service": {
          "other_platform_oauth_client": [
            {
              "client_id": "819240501242-2p3p0qe4865rqcd4movajdbkuokf1nlq.apps.googleusercontent.com",
              "client_type": 3
            }
          ]
        }
      }
    }
  ],
  "configuration_version": "1"
}